<?xml version="1.0" encoding="UTF-8" standalone="no"?>
<!-- Created with Inkscape (http://www.inkscape.org/) -->

<svg
   xmlns:dc="http://purl.org/dc/elements/1.1/"
   xmlns:cc="http://creativecommons.org/ns#"
   xmlns:rdf="http://www.w3.org/1999/02/22-rdf-syntax-ns#"
   xmlns:svg="http://www.w3.org/2000/svg"
   xmlns="http://www.w3.org/2000/svg"
   xmlns:sodipodi="http://sodipodi.sourceforge.net/DTD/sodipodi-0.dtd"
   xmlns:inkscape="http://www.inkscape.org/namespaces/inkscape"
   width="200mm"
   height="100mm"
   viewBox="0 0 708.66141 354.3307"
   id="svg2"
   version="1.1"
   inkscape:version="0.91 r"
   sodipodi:docname="a.svg">
  <defs
     id="defs4" />
  <sodipodi:namedview
     id="base"
     pagecolor="#ffffff"
     bordercolor="#666666"
     borderopacity="1.0"
     inkscape:pageopacity="0.0"
     inkscape:pageshadow="2"
     inkscape:zoom="2.8284271"
     inkscape:cx="156.39671"
     inkscape:cy="241.97556"
     inkscape:document-units="mm"
     inkscape:current-layer="layer1"
     showgrid="false"
     inkscape:window-width="1871"
     inkscape:window-height="1056"
     inkscape:window-x="49"
     inkscape:window-y="24"
     inkscape:window-maximized="1" />
  <metadata
     id="metadata7">
    <rdf:RDF>
      <cc:Work
         rdf:about="">
        <dc:format>image/svg+xml</dc:format>
        <dc:type
           rdf:resource="http://purl.org/dc/dcmitype/StillImage" />
        <dc:title></dc:title>
      </cc:Work>
    </rdf:RDF>
  </metadata>
  <g
     inkscape:groupmode="layer"
     id="layer2"
     inkscape:label="Background"
     transform="translate(0,-389.76378)"
     sodipodi:insensitive="true">
    <g
       id="g3656">
      <rect
         ry="7.2321038"
         rx="9.2532797"
         y="393.47818"
         x="3.2104797"
         height="350.24045"
         width="704.57117"
         id="border"
         style="fill:none;stroke:#f20000;stroke-width:4.09025335;stroke-miterlimit:4;stroke-dasharray:12.27075911, 4.09025304;stroke-dashoffset:0;stroke-opacity:1">
        <desc
           id="desc4140">Cutting Limits</desc>
        <title
           id="title4138">Cutting border</title>
      </rect>
      <flowRoot
         transform="translate(-170,294)"
         style="font-style:normal;font-weight:normal;font-size:40px;line-height:125%;font-family:'Arial Black';letter-spacing:0px;word-spacing:0px;fill:#000000;fill-opacity:1;stroke:none;stroke-width:1px;stroke-linecap:butt;stroke-linejoin:miter;stroke-opacity:1;-inkscape-font-specification:'Arial Black, ';font-stretch:normal;font-variant:normal;"
         id="flowRoot4154"
         xml:space="preserve"><flowRegion
           id="flowRegion4156"><rect
             y="416.09448"
             x="185"
             height="146"
             width="703"
             id="rect4158"
             style="-inkscape-font-specification:'Arial Black, ';font-family:'Arial Black';font-weight:normal;font-style:normal;font-stretch:normal;font-variant:normal;" /></flowRegion><flowPara
           style="font-size:25px;fill:#ff0000;-inkscape-font-specification:'Arial Black, ';font-family:'Arial Black';font-weight:normal;font-style:normal;font-stretch:normal;font-variant:normal;"
           id="flowPara4160">Draw object within borders</flowPara></flowRoot>      <flowRoot
         transform="translate(14,428.76376)"
         style="font-style:normal;font-variant:normal;font-weight:normal;font-stretch:normal;font-size:7.5px;line-height:100%;font-family:'Arial Black';-inkscape-font-specification:'Arial Black, ';text-align:start;letter-spacing:0px;word-spacing:0px;writing-mode:lr-tb;text-anchor:start;fill:#000000;fill-opacity:1;stroke:none;stroke-width:1px;stroke-linecap:butt;stroke-linejoin:miter;stroke-opacity:1;"
         id="flowRoot3638"
         xml:space="preserve"><flowRegion
           id="flowRegion3640"><rect
             y="133.33072"
             x="657"
             height="32"
             width="78"
             id="rect3642"
             style="-inkscape-font-specification:'Arial Black, ';font-family:'Arial Black';font-weight:normal;font-style:normal;font-stretch:normal;font-variant:normal;" /></flowRegion><flowPara
           style="font-size:15px;-inkscape-font-specification:'Arial Black, ';font-family:'Arial Black';font-weight:normal;font-style:normal;font-stretch:normal;font-variant:normal;"
           id="flowPara3644">100</flowPara><flowPara
           id="flowPara3646"
           style="font-size:15px;-inkscape-font-specification:'Arial Black, ';font-family:'Arial Black';font-weight:normal;font-style:normal;font-stretch:normal;font-variant:normal;">mm</flowPara></flowRoot>      <flowRoot
         transform="translate(185,86.76376)"
         style="font-style:normal;font-variant:normal;font-weight:normal;font-stretch:normal;font-size:7.5px;line-height:100%;font-family:'Arial Black';-inkscape-font-specification:'Arial Black, ';text-align:start;letter-spacing:0px;word-spacing:0px;writing-mode:lr-tb;text-anchor:start;fill:#000000;fill-opacity:1;stroke:none;stroke-width:1px;stroke-linecap:butt;stroke-linejoin:miter;stroke-opacity:1;"
         id="flowRoot3648"
         xml:space="preserve"><flowRegion
           id="flowRegion3650"><rect
             y="313.33072"
             x="454"
             height="34"
             width="84"
             id="rect3652"
             style="-inkscape-font-specification:'Arial Black, ';font-family:'Arial Black';font-weight:normal;font-style:normal;font-stretch:normal;font-variant:normal;" /></flowRegion><flowPara
           style="font-size:15px;-inkscape-font-specification:'Arial Black, ';font-family:'Arial Black';font-weight:normal;font-style:normal;font-stretch:normal;font-variant:normal;"
           id="flowPara3654">200mm</flowPara></flowRoot>    </g>
  </g>
  <g
     inkscape:label="Layer 1"
     inkscape:groupmode="layer"
     id="layer1"
     transform="translate(0,-698.0315)">
    <path
       transform="translate(0,698.0315)"
       style="fill:none;fill-rule:evenodd;stroke:#000000;stroke-width:1px;stroke-linecap:butt;stroke-linejoin:miter;stroke-opacity:1"
       d="m 97.403959,56.108408 0,-12.197592 6.717511,-1.59099 10.07628,-0.883883 8.3085,0.53033 7.95495,1.06066 6.18719,3.535534 4.24264,4.949747 1.76776,10.253049 0.17678,10.783378 0,6.894291 -0.35355,7.247845 0.35355,4.949747 -15.9099,0 -0.17678,-6.540738 -5.3033,5.126525 -6.71751,2.65165 -5.12653,0.176777 -4.41942,-0.53033 -4.94974,-2.298097 -4.772974,-3.535534 -2.651651,-5.126525 -0.353553,-6.187184 1.944543,-6.010408 4.242641,-5.126524 10.960154,8.838835 -0.70711,2.651651 -0.17677,2.298097 1.41421,2.65165 2.12132,1.414214 2.65165,0.53033 3.35876,0.353553 3.53553,-1.767767 3.53554,-3.18198 1.23743,-3.535534 0.35356,-4.596194 -4.06587,-0.176777 -5.3033,0 -3.71231,0.53033 -3.53553,1.944544 -10.07627,-8.308505 1.94454,-1.06066 3.88909,-0.707107 4.77297,-1.06066 3.18198,-0.176777 3.35876,-0.176777 3.18198,0.176777 5.65685,-0.353553 0.70711,-1.767767 -0.88389,-2.474874 -1.41421,-1.944544 -3.71231,-1.59099 -5.3033,-0.53033 -4.77297,-0.176777 -5.3033,1.06066 -3.88909,0.530331 z"
       id="path3814"
       inkscape:connector-curvature="0" />
  </g>
  <g
     inkscape:groupmode="layer"
     id="layer3"
     inkscape:label="Testing" />
</svg>
