%!PS-Adobe-3.0
%%Creator: Rhinoceros
%%Title: (sine_wave.AI)
%%BoundingBox: 26 196 538 466
%%DocumentProcessColors: Black
%%DocumentNeededResources: procset Adobe_packedarray 2.0 0
%%+ procset Adobe_cmykcolor 1.1 0
%%+ procset Adobe_cshow 1.1 0
%%+ procset Adobe_customcolor 1.0 0
%%+ procset Adobe_typography_AI3 1.0 0
%%+ procset Adobe_IllustratorA_AI3 1.0 0
%AI3_ColorUsage: Color
%AI3_TemplateBox: 0 0 0 0
%AI3_TileBox: 0 0 576 768
%AI3_DocumentPreview: None
%%Template:
%%PageOrigin:0 0
%%EndComments
%%BeginProlog
%%IncludeResource: procset Adobe_packedarray 2.0 0
Adobe_packedarray /initialize get exec
%%IncludeResource: procset Adobe_cmykcolor 1.1 0
%%IncludeResource: procset Adobe_cshow 1.1 0
%%IncludeResource: procset Adobe_customcolor 1.0 0
%%IncludeResource: procset Adobe_typography_AI3 1.0 0
%%IncludeResource: procset Adobe_IllustratorA_AI3 1.0 0
%%EndProlog
%%BeginSetup
Adobe_cmykcolor /initialize get exec
Adobe_cshow /initialize get exec
Adobe_customcolor /initialize get exec
Adobe_typography_AI3 /initialize get exec
Adobe_IllustratorA_AI3 /initialize get exec
%%EndSetup
%AI5_BeginLayer
1 1 1 1 0 0 -1 0 0 0 Lb
(Default) Ln
0 A
0 R
0.0000 0.0000 0.0000 XA
0.0000 0.0000 0.0000 Xa
0 i 1 J 1 j 1.0000 w 4 M []0 d
0 D
287.9923 341.2581 m
537.2135 341.2581 L
537.2135 465.8686 L
287.9923 465.8686 L
287.9923 341.2581 L
s
0.0000 0.0000 0.0000 XA
0.0000 0.0000 0.0000 Xa
0 i 1 J 1 j 1.0000 w 4 M []0 d
0 D
62.6043 367.8130 m
62.6043 445.7264 L
S
0.0000 0.0000 0.0000 XA
0.0000 0.0000 0.0000 Xa
0 i 1 J 1 j 1.0000 w 4 M []0 d
0 D
38.1058 391.7007 m
258.1632 391.7007 L
S
0.0000 0.0000 0.0000 XA
0.0000 0.0000 0.0000 Xa
0 i 1 J 1 j 1.0000 w 4 M []0 d
0 D
323.0354 367.8130 m
323.0354 445.7264 L
S
0.0000 0.0000 0.0000 XA
0.0000 0.0000 0.0000 Xa
0 i 1 J 1 j 1.0000 w 4 M []0 d
0 D
298.5370 391.7007 m
518.5943 391.7007 L
S
0.0000 0.0000 0.0000 XA
0.0000 0.0000 0.0000 Xa
0 i 1 J 1 j 1.0000 w 4 M []0 d
0 D
298.5370 247.9832 m
518.5943 247.9832 L
S
0.0000 0.0000 0.0000 XA
0.0000 0.0000 0.0000 Xa
0 i 1 J 1 j 1.0000 w 4 M []0 d
0 D
323.0354 224.0954 m
323.0354 302.0089 L
S
0.0000 0.0000 0.0000 XA
0.0000 0.0000 0.0000 Xa
0 i 1 J 1 j 1.0000 w 4 M []0 d
0 D
287.9923 197.5405 m
537.2135 197.5405 L
537.2135 322.1511 L
287.9923 322.1511 L
287.9923 197.5405 L
s
0.0000 0.0000 0.0000 XA
0.0000 0.0000 0.0000 Xa
0 i 1 J 1 j 1.0000 w 4 M []0 d
0 D
27.5612 341.2581 m
276.7824 341.2581 L
276.7824 465.8686 L
27.5612 465.8686 L
27.5612 341.2581 L
s
LB
%AI5_EndLayer--
%AI5_BeginLayer
1 1 1 1 0 0 -1 3 105 127 Lb
(highlight) Ln
0 A
0 R
0.0118 0.4118 0.4980 XA
0.0118 0.4118 0.4980 Xa
0 i 1 J 1 j 1.0000 w 4 M []0 d
0 D
435.1480 407.0059 m
436.1072 406.9525 437.0375 406.4294 437.9508 405.8718 c
438.9262 405.2763 439.8823 404.6413 440.7536 403.9120 c
443.0811 401.9638 444.8043 399.3421 446.3593 396.6991 c
447.3341 395.0420 448.2429 393.3766 449.1374 391.7007 C
S
0.0118 0.4118 0.4980 XA
0.0118 0.4118 0.4980 Xa
0 i 1 J 1 j 1.0000 w 4 M []0 d
0 D
491.2043 407.0059 m
490.2451 406.9525 489.3148 406.4294 488.4015 405.8718 c
487.4261 405.2763 486.4700 404.6413 485.5986 403.9120 c
483.2712 401.9638 481.5480 399.3421 479.9930 396.6991 c
479.0181 395.0420 478.1094 393.3766 477.2149 391.7007 C
S
0.0118 0.4118 0.4980 XA
0.0118 0.4118 0.4980 Xa
0 i 1 J 1 j 1.0000 w 4 M []0 d
0 D
379.0917 407.0059 m
380.0509 406.9525 380.9812 406.4294 381.8945 405.8718 c
382.8699 405.2763 383.8260 404.6413 384.6973 403.9120 c
387.0248 401.9638 388.7480 399.3421 390.3030 396.6991 c
391.2779 395.0420 392.1866 393.3766 393.0811 391.7007 C
S
0.0118 0.4118 0.4980 XA
0.0118 0.4118 0.4980 Xa
0 i 1 J 1 j 1.0000 w 4 M []0 d
0 D
435.1480 407.0059 m
434.1888 406.9525 433.2585 406.4294 432.3452 405.8718 c
431.3698 405.2763 430.4137 404.6413 429.5424 403.9120 c
427.2149 401.9638 425.4917 399.3421 423.9367 396.6991 c
422.9619 395.0420 422.0531 393.3766 421.1586 391.7007 C
S
0.0118 0.4118 0.4980 XA
0.0118 0.4118 0.4980 Xa
0 i 1 J 1 j 1.0000 w 4 M []0 d
0 D
174.7168 376.3955 m
173.7576 376.4489 172.8273 376.9720 171.9140 377.5296 c
170.9386 378.1251 169.9826 378.7601 169.1112 379.4894 c
166.7838 381.4376 165.0605 384.0593 163.5056 386.7024 c
161.5084 390.0971 159.7889 393.5269 157.8999 397.0100 c
156.3726 399.8263 154.7346 402.6774 152.2943 404.6640 c
150.6712 405.9854 148.6932 406.9242 146.6887 407.0059 C
S
0.0118 0.4118 0.4980 XA
0.0118 0.4118 0.4980 Xa
0 i 1 J 1 j 1.0000 w 4 M []0 d
0 D
118.6606 376.3955 m
119.6198 376.4489 120.5500 376.9720 121.4634 377.5296 c
122.4388 378.1251 123.3948 378.7601 124.2662 379.4894 c
126.5936 381.4376 128.3169 384.0593 129.8718 386.7024 c
131.8690 390.0971 133.5885 393.5269 135.4774 397.0100 c
137.0048 399.8263 138.6428 402.6774 141.0831 404.6640 c
142.7062 405.9854 144.6842 406.9242 146.6887 407.0059 C
S
0.0118 0.4118 0.4980 XA
0.0118 0.4118 0.4980 Xa
0 i 1 J 1 j 1.0000 w 4 M []0 d
0 D
230.7731 376.3955 m
229.8139 376.4489 228.8836 376.9720 227.9703 377.5296 c
226.9949 378.1251 226.0388 378.7601 225.1675 379.4894 c
222.8400 381.4376 221.1168 384.0593 219.5619 386.7024 c
217.5647 390.0971 215.8451 393.5269 213.9562 397.0100 c
212.4289 399.8263 210.7908 402.6774 208.3506 404.6640 c
206.7275 405.9854 204.7494 406.9242 202.7450 407.0059 C
S
0.0118 0.4118 0.4980 XA
0.0118 0.4118 0.4980 Xa
0 i 1 J 1 j 1.0000 w 4 M []0 d
0 D
174.7168 376.3955 m
175.6760 376.4489 176.6063 376.9720 177.5196 377.5296 c
178.4950 378.1251 179.4511 378.7601 180.3225 379.4894 c
182.6499 381.4376 184.3732 384.0593 185.9281 386.7024 c
187.9253 390.0971 189.6448 393.5269 191.5337 397.0100 c
193.0610 399.8263 194.6991 402.6774 197.1393 404.6640 c
198.7625 405.9854 200.7405 406.9242 202.7450 407.0059 C
S
0.0118 0.4118 0.4980 XA
0.0118 0.4118 0.4980 Xa
0 i 1 J 1 j 1.0000 w 4 M []0 d
0 D
118.6606 376.3955 m
117.7013 376.4489 116.7711 376.9720 115.8577 377.5296 c
114.8823 378.1251 113.9263 378.7601 113.0549 379.4894 c
110.7275 381.4376 109.0042 384.0593 107.4493 386.7024 c
105.4521 390.0971 103.7326 393.5269 101.8437 397.0100 c
100.3164 399.8263 98.6783 402.6774 96.2380 404.6640 c
94.6149 405.9854 92.6369 406.9242 90.6324 407.0059 C
S
0.0118 0.4118 0.4980 XA
0.0118 0.4118 0.4980 Xa
0 i 1 J 1 j 1.0000 w 4 M []0 d
0 D
323.0354 263.2884 m
491.2043 263.2884 L
S
0.0118 0.4118 0.4980 XA
0.0118 0.4118 0.4980 Xa
0 i 1 J 1 j 1.0000 w 4 M []0 d
0 D
62.6043 376.3955 m
63.5635 376.4489 64.4938 376.9720 65.4071 377.5296 c
66.3825 378.1251 67.3385 378.7601 68.2099 379.4894 c
70.5374 381.4376 72.2606 384.0593 73.8155 386.7024 c
75.8127 390.0971 77.5322 393.5269 79.4212 397.0100 c
80.9485 399.8263 82.5865 402.6774 85.0268 404.6640 c
86.6499 405.9854 88.6279 406.9242 90.6324 407.0059 C
S
0.0118 0.4118 0.4980 XA
0.0118 0.4118 0.4980 Xa
0 i 1 J 1 j 1.0000 w 4 M []0 d
0 D
421.1586 391.7007 m
420.2205 393.4581 419.2980 395.2271 418.3311 397.0100 c
416.8038 399.8263 415.1657 402.6774 412.7255 404.6640 c
411.1024 405.9854 409.1243 406.9242 407.1199 407.0059 C
S
0.0118 0.4118 0.4980 XA
0.0118 0.4118 0.4980 Xa
0 i 1 J 1 j 1.0000 w 4 M []0 d
0 D
393.0811 391.7007 m
394.0192 393.4581 394.9417 395.2271 395.9086 397.0100 c
397.4359 399.8263 399.0740 402.6774 401.5142 404.6640 c
403.1374 405.9854 405.1154 406.9242 407.1199 407.0059 C
S
0.0118 0.4118 0.4980 XA
0.0118 0.4118 0.4980 Xa
0 i 1 J 1 j 1.0000 w 4 M []0 d
0 D
477.2149 391.7007 m
476.2768 393.4581 475.3543 395.2271 474.3874 397.0100 c
472.8601 399.8263 471.2220 402.6774 468.7818 404.6640 c
467.1586 405.9854 465.1806 406.9242 463.1761 407.0059 C
S
0.0118 0.4118 0.4980 XA
0.0118 0.4118 0.4980 Xa
0 i 1 J 1 j 1.0000 w 4 M []0 d
0 D
449.1374 391.7007 m
450.0755 393.4581 450.9980 395.2271 451.9649 397.0100 c
453.4922 399.8263 455.1303 402.6774 457.5705 404.6640 c
459.1936 405.9854 461.1717 406.9242 463.1761 407.0059 C
S
0.0118 0.4118 0.4980 XA
0.0118 0.4118 0.4980 Xa
0 i 1 J 1 j 1.0000 w 4 M []0 d
0 D
365.1023 391.7007 m
364.1642 393.4581 363.2417 395.2271 362.2748 397.0100 c
360.7475 399.8263 359.1095 402.6774 356.6692 404.6640 c
355.0461 405.9854 353.0681 406.9242 351.0636 407.0059 C
S
0.0118 0.4118 0.4980 XA
0.0118 0.4118 0.4980 Xa
0 i 1 J 1 j 1.0000 w 4 M []0 d
0 D
337.0249 391.7007 m
337.9629 393.4581 338.8854 395.2271 339.8523 397.0100 c
341.3796 399.8263 343.0177 402.6774 345.4580 404.6640 c
347.0811 405.9854 349.0591 406.9242 351.0636 407.0059 C
S
0.0118 0.4118 0.4980 XA
0.0118 0.4118 0.4980 Xa
0 i 1 J 1 j 1.0000 w 4 M []0 d
0 D
323.0354 407.0059 m
323.9947 406.9525 324.9249 406.4294 325.8383 405.8718 c
326.8137 405.2763 327.7697 404.6413 328.6411 403.9120 c
330.9685 401.9638 332.6918 399.3421 334.2467 396.6991 c
335.2216 395.0420 336.1303 393.3766 337.0249 391.7007 C
S
0.0118 0.4118 0.4980 XA
0.0118 0.4118 0.4980 Xa
0 i 1 J 1 j 1.0000 w 4 M []0 d
0 D
379.0917 407.0059 m
378.1325 406.9525 377.2022 406.4294 376.2889 405.8718 c
375.3135 405.2763 374.3575 404.6413 373.4861 403.9120 c
371.1586 401.9638 369.4354 399.3421 367.8805 396.6991 c
366.9056 395.0420 365.9969 393.3766 365.1023 391.7007 C
S
LB
%AI5_EndLayer--
%%PageTrailer
gsave annotatepage grestore showpage
%%Trailer
Adobe_IllustratorA_AI3 /terminate get exec
Adobe_typography_AI3 /terminate get exec
Adobe_customcolor /terminate get exec
Adobe_cshow /terminate get exec
Adobe_cmykcolor /terminate get exec
Adobe_packedarray /terminate get exec
%%EOF
